 	᠎	 	 	 	 	 	 	 	 	 	 	 	 	 	 	 	 
!	ǃ	！
&	ꝸ
'	ꞌ	ʻ	ʼ	י	ʹ	ʽ	ʾ	ˊ	ˋ	ߴ	ߵ	ʹ	׳	’	˴	՚	՝	‘	‛	′	‵	´	΄	᾽	᾿	`	´	῾	＇	｀
(	❨	❲	〔	﴾	［
)	❩	❳	〕	﴿	］
*	٭	⁎	∗
+	﬩
,	٫	‚	¸
-	Ⲻ	˗	‐	‒	–	⁃	−	‑	﹘
.	٠	۰	ꓸ	ꓻ	𝅭	۔	܁	܂	꘎	𐩐	․
/	丿	Ⳇ	〳	᜵	⁁	⁄	∕	╱	⧸	㇓	⼃
0	Ｏ	০	୦	ഠ	ⵔ	〇	Ο	О	Օ	߀	Ⲟ	ꓳ	𝐎	𝑂	𝑶	𝒪	𝓞	𝔒	𝕆	𝕺	𝖮	𝗢	𝘖	𝙊	𝙾	𝚶	𝛰	𝜪	𝝤	𝞞	𝟎	𝟘	𝟢	𝟬	𝟶
1	ǀ	Ⅰ	Ｉ	ｌ	ו	ן	ⵏ	Ι	І	Ӏ	ߊ	Ⲓ	ꓲ	ℐ	ℑ	ℓ	𝐈	𝐥	𝐼	𝑙	𝑰	𝒍	𝓁	𝓘	𝓵	𝔩	𝕀	𝕝	𝕴	𝖑	𝖨	𝗅	𝗜	𝗹	𝘐	𝘭	𝙄	𝙡	𝙸	𝚕	𝚰	𝛪	𝜤	𝝞	𝞘	𝟏	𝟙	𝟣	𝟭	𝟷	∣	￨
2	Ƨ	Ꝛ	ᒿ	Ϩ	Ꙅ	𝟐	𝟚	𝟤	𝟮	𝟸
3	Ʒ	Ȝ	Ꝫ	З	Ӡ	Յ	Ⳍ	𝟑	𝟛	𝟥	𝟯	𝟹
4	Ꮞ	𝟒	𝟜	𝟦	𝟰	𝟺
5	Ƽ	𝟓	𝟝	𝟧	𝟱	𝟻
6	б	Ⳓ	𝟔	𝟞	𝟨	𝟲	𝟼
7	𝟕	𝟟	𝟩	𝟳	𝟽
8	Ȣ	ȣ	৪	੪	ଃ	𝟖	𝟠	𝟪	𝟴	𝟾
9	Ꝯ	৭	੧	୨	Ⳋ	𝟗	𝟡	𝟫	𝟵	𝟿
:	ः	ઃ	ː	ꓽ	˸	։	׃	܃	܄	᠃	᠉	⁚	∶	꞉	︰	：
;	;
<	˂	‹	❮
=	꓿
>	˃	›	❯
?	Ɂ	ʔ	ॽ
A	Ａ	ᗅ	Α	А	Ꭺ	ꓮ	𝐀	𝐴	𝑨	𝒜	𝓐	𝔄	𝔸	𝕬	𝖠	𝗔	𝘈	𝘼	𝙰	𝚨	𝛢	𝜜	𝝖	𝞐
B	Ｂ	ᗷ	Β	В	Ᏼ	ꓐ	ℬ	𝐁	𝐵	𝑩	𝓑	𝔅	𝔹	𝕭	𝖡	𝗕	𝘉	𝘽	𝙱	𝚩	𝛣	𝜝	𝝗	𝞑
C	Ⅽ	Ｃ	ௐ	С	Ꮯ	Ⲥ	ꓚ	Ϲ	ℂ	ℭ	𝐂	𝐶	𝑪	𝒞	𝓒	𝕮	𝖢	𝗖	𝘊	𝘾	𝙲
D	Ⅾ	ᗞ	ᗪ	Ꭰ	ꓓ	ⅅ	𝐃	𝐷	𝑫	𝒟	𝓓	𝔇	𝔻	𝕯	𝖣	𝗗	𝘋	𝘿	𝙳
E	Ｅ	ⴹ	Ε	Е	Ꭼ	ꓰ	ℰ	𝐄	𝐸	𝑬	𝓔	𝔈	𝔼	𝕰	𝖤	𝗘	𝘌	𝙀	𝙴	𝚬	𝛦	𝜠	𝝚	𝞔	⋿
F	ᖴ	Ϝ	ꓝ	ℱ	𝐅	𝐹	𝑭	𝓕	𝔉	𝔽	𝕱	𝖥	𝗙	𝘍	𝙁	𝙵	𝟊
G	Ԍ	Ꮐ	Ᏻ	ꓖ	𝐆	𝐺	𝑮	𝒢	𝓖	𝔊	𝔾	𝕲	𝖦	𝗚	𝘎	𝙂	𝙶
H	Ｈ	ᕼ	Η	Н	Ꮋ	Ⲏ	ꓧ	ℋ	ℌ	ℍ	𝐇	𝐻	𝑯	𝓗	𝕳	𝖧	𝗛	𝘏	𝙃	𝙷	𝚮	𝛨	𝜢	𝝜	𝞖
I	Ɩ
J	Ｊ	ᒍ	Ј	Ꭻ	Ꮷ	ꓙ	𝐉	𝐽	𝑱	𝒥	𝓙	𝔍	𝕁	𝕵	𝖩	𝗝	𝘑	𝙅	𝙹
K	K	Ｋ	Κ	К	Ꮶ	Ⲕ	ꓗ	𝐊	𝐾	𝑲	𝒦	𝓚	𝔎	𝕂	𝕶	𝖪	𝗞	𝘒	𝙆	𝙺	𝚱	𝛫	𝜥	𝝟	𝞙
L	Ⅼ	ᒪ	Ꮮ	Ⳑ	ꓡ	ℒ	𝐋	𝐿	𝑳	𝓛	𝔏	𝕃	𝕷	𝖫	𝗟	𝘓	𝙇	𝙻
M	Ⅿ	Ｍ	ᗰ	Μ	М	Ϻ	Ꮇ	Ⲙ	ꓟ	ℳ	𝐌	𝑀	𝑴	𝓜	𝔐	𝕄	𝕸	𝖬	𝗠	𝘔	𝙈	𝙼	𝚳	𝛭	𝜧	𝝡	𝞛
N	Ｎ	Ν	Ⲛ	ꓠ	ℕ	𝐍	𝑁	𝑵	𝒩	𝓝	𝔑	𝕹	𝖭	𝗡	𝘕	𝙉	𝙽	𝚴	𝛮	𝜨	𝝢	𝞜
O	ଠ
P	Ｐ	ᑭ	Ρ	Р	Ꮲ	Ⲣ	ꓑ	ℙ	𝐏	𝑃	𝑷	𝒫	𝓟	𝔓	𝕻	𝖯	𝗣	𝘗	𝙋	𝙿	𝚸	𝛲	𝜬	𝝦	𝞠
Q	ℚ	𝐐	𝑄	𝑸	𝒬	𝓠	𝔔	𝕼	𝖰	𝗤	𝘘	𝙌	𝚀
R	Ʀ	ᖇ	Ꭱ	Ꮢ	ꓣ	ℛ	ℜ	ℝ	𝐑	𝑅	𝑹	𝓡	𝕽	𝖱	𝗥	𝘙	𝙍	𝚁
S	Ｓ	Ѕ	Տ	Ꮥ	Ꮪ	ꓢ	𝐒	𝑆	𝑺	𝒮	𝓢	𝔖	𝕊	𝕾	𝖲	𝗦	𝘚	𝙎	𝚂
T	Ｔ	Τ	Т	Ꭲ	Ⲧ	ꓔ	𝐓	𝑇	𝑻	𝒯	𝓣	𝔗	𝕋	𝕿	𝖳	𝗧	𝘛	𝙏	𝚃	𝚻	𝛵	𝜯	𝝩	𝞣	⟙
U	ᑌ	Ս	ꓴ	𝐔	𝑈	𝑼	𝒰	𝓤	𝔘	𝕌	𝖀	𝖴	𝗨	𝘜	𝙐	𝚄
V	Ⅴ	ᐯ	ⴸ	Ѵ	Ꮩ	ꓦ	𝐕	𝑉	𝑽	𝒱	𝓥	𝔙	𝕍	𝖁	𝖵	𝗩	𝘝	𝙑	𝚅
W	Ԝ	Ꮃ	Ꮤ	ꓪ	𝐖	𝑊	𝑾	𝒲	𝓦	𝔚	𝕎	𝖂	𝖶	𝗪	𝘞	𝙒	𝚆
X	Ⅹ	Ｘ	ⵝ	Χ	Х	Ⲭ	ꓫ	𝐗	𝑋	𝑿	𝒳	𝓧	𝔛	𝕏	𝖃	𝖷	𝗫	𝘟	𝙓	𝚇	𝚾	𝛸	𝜲	𝝬	𝞦	᙭
Y	Ｙ	Υ	Ү	Ꭹ	Ꮍ	Ⲩ	ꓬ	ϒ	𝐘	𝑌	𝒀	𝒴	𝓨	𝔜	𝕐	𝖄	𝖸	𝗬	𝘠	𝙔	𝚈	𝚼	𝛶	𝜰	𝝪	𝞤
Z	Ｚ	Ζ	Ꮓ	ꓜ	ℤ	ℨ	𝐙	𝑍	𝒁	𝒵	𝓩	𝖅	𝖹	𝗭	𝘡	𝙕	𝚉	𝚭	𝛧	𝜡	𝝛	𝞕
\	丶	∖	⧵	⧹	㇔	⼂	﹨	＼
^	ˆ	˄
_	ߺ	﹍	﹎	﹏
a	ɑ	ａ	α	а	𝐚	𝑎	𝒂	𝒶	𝓪	𝔞	𝕒	𝖆	𝖺	𝗮	𝘢	𝙖	𝚊	𝛂	𝛼	𝜶	𝝰	𝞪	⍺
b	Ƅ	ᖯ	Ь	Ꮟ	𝐛	𝑏	𝒃	𝒷	𝓫	𝔟	𝕓	𝖇	𝖻	𝗯	𝘣	𝙗	𝚋
c	ᴄ	ⅽ	ｃ	с	ⲥ	ϲ	𝐜	𝑐	𝒄	𝒸	𝓬	𝔠	𝕔	𝖈	𝖼	𝗰	𝘤	𝙘	𝚌
d	ⅾ	ԁ	ᑯ	ꓒ	ⅆ	𝐝	𝑑	𝒅	𝒹	𝓭	𝔡	𝕕	𝖉	𝖽	𝗱	𝘥	𝙙	𝚍
e	ｅ	е	℮	ℯ	ⅇ	𝐞	𝑒	𝒆	𝓮	𝔢	𝕖	𝖊	𝖾	𝗲	𝘦	𝙚	𝚎
f	ẝ	ſ	ք	𝐟	𝑓	𝒇	𝒻	𝓯	𝔣	𝕗	𝖋	𝖿	𝗳	𝘧	𝙛	𝚏
g	ƍ	ɡ	ᶃ	ｇ	ց	ℊ	𝐠	𝑔	𝒈	𝓰	𝔤	𝕘	𝖌	𝗀	𝗴	𝘨	𝙜	𝚐
h	ｈ	һ	հ	Ꮒ	ℎ	𝐡	𝒉	𝒽	𝓱	𝔥	𝕙	𝖍	𝗁	𝗵	𝘩	𝙝	𝚑
i	ı	ɩ	ɪ	ⅰ	ｉ	ι	і	ӏ	Ꭵ	ι	ℹ	ⅈ	𝐢	𝑖	𝒊	𝒾	𝓲	𝔦	𝕚	𝖎	𝗂	𝗶	𝘪	𝙞	𝚒	𝚤	𝛊	𝜄	𝜾	𝝸	𝞲	⍳	˛	ͺ
j	ȷ	ｊ	ј	յ	ϳ	ⅉ	𝐣	𝑗	𝒋	𝒿	𝓳	𝔧	𝕛	𝖏	𝗃	𝗷	𝘫	𝙟	𝚓	𝚥
k	ĸ	ᴋ	κ	к	ⲕ	ϰ	𝐤	𝑘	𝒌	𝓀	𝓴	𝔨	𝕜	𝖐	𝗄	𝗸	𝘬	𝙠	𝚔	𝛋	𝛞	𝜅	𝜘	𝜿	𝝒	𝝹	𝞌	𝞳	𝟆
l	ⅼ
m	ʍ	ⅿ	𝐦	𝑚	𝒎	𝓂	𝓶	𝔪	𝕞	𝖒	𝗆	𝗺	𝘮	𝙢	𝚖
n	π	п	ո	ռ	ᴨ	ϖ	ℼ	𝐧	𝑛	𝒏	𝓃	𝓷	𝔫	𝕟	𝖓	𝗇	𝗻	𝘯	𝙣	𝚗	𝛑	𝛡	𝜋	𝜛	𝝅	𝝕	𝝿	𝞏	𝞹	𝟉
o	ᴏ	ᴑ	ｏ	ο	σ	о	օ	ס	٥	०	੦	૦	௦	ం	౦	ಂ	೦	ം	൦	ං	๐	໐	ဝ	၀	ⲟ	ℴ	𝐨	𝑜	𝒐	𝓸	𝔬	𝕠	𝖔	𝗈	𝗼	𝘰	𝙤	𝚘	𝛐	𝛔	𝜊	𝜎	𝝄	𝝈	𝝾	𝞂	𝞸	𝞼
p	ｐ	ρ	р	ⲣ	ϱ	𝐩	𝑝	𝒑	𝓅	𝓹	𝔭	𝕡	𝖕	𝗉	𝗽	𝘱	𝙥	𝚙	𝛒	𝛠	𝜌	𝜚	𝝆	𝝔	𝞀	𝞎	𝞺	𝟈	⍴
q	ԛ	գ	զ	𝐪	𝑞	𝒒	𝓆	𝓺	𝔮	𝕢	𝖖	𝗊	𝗾	𝘲	𝙦	𝚚
r	г	ᴦ	ⲅ	𝐫	𝑟	𝒓	𝓇	𝓻	𝔯	𝕣	𝖗	𝗋	𝗿	𝘳	𝙧	𝚛
s	ƽ	ꜱ	ｓ	ѕ	𝐬	𝑠	𝒔	𝓈	𝓼	𝔰	𝕤	𝖘	𝗌	𝘀	𝘴	𝙨	𝚜
t	ᴛ	τ	т	𝐭	𝑡	𝒕	𝓉	𝓽	𝔱	𝕥	𝖙	𝗍	𝘁	𝘵	𝙩	𝚝	𝛕	𝜏	𝝉	𝞃	𝞽
u	ʋ	ᴜ	υ	ц	ս	𝐮	𝑢	𝒖	𝓊	𝓾	𝔲	𝕦	𝖚	𝗎	𝘂	𝘶	𝙪	𝚞	𝛖	𝜐	𝝊	𝞄	𝞾
v	ᴠ	ⅴ	ｖ	ν	ט	ѵ	𝐯	𝑣	𝒗	𝓋	𝓿	𝔳	𝕧	𝖛	𝗏	𝘃	𝘷	𝙫	𝚟	𝛎	𝜈	𝝂	𝝼	𝞶	∨	⋁
x	ⅹ	ｘ	х	ᕁ	ᕽ	𝐱	𝑥	𝒙	𝓍	𝔁	𝔵	𝕩	𝖝	𝗑	𝘅	𝘹	𝙭	𝚡	×	᙮	╳	⤫	⤬	⨯
y	ʏ	ᶌ	ỿ	ｙ	γ	у	ү	ყ	ℽ	𝐲	𝑦	𝒚	𝓎	𝔂	𝔶	𝕪	𝖞	𝗒	𝘆	𝘺	𝙮	𝚢	𝛄	𝛾	𝜸	𝝲	𝞬
z	ᴢ	𝐳	𝑧	𝒛	𝓏	𝔃	𝔷	𝕫	𝖟	𝗓	𝘇	𝘻	𝙯	𝚣
{	❴
}	❵
~	⁓	∼	˜	῀
£	₤
ˉ	▔	¯	‾	﹉	﹊	﹋	﹌	￣
°	∘	○	◦	˚
μ	µ	𝛍	𝜇	𝝁	𝝻	𝞵
·	ᐧ	·	•	‧	∙	⋅	・	𐄁	･
º	ᵒ	⁰
Å	Ȧ
Ö	Ő
Þ	Ϸ
ß	β	ϐ	𝛃	𝛽	𝜷	𝝱	𝞫
å	ȧ
ö	ة	ۃ	ﺓ	ﺔ
þ	ƿ	ϸ
Ă	Ǎ
ă	ǎ
Ĕ	Ě
ĕ	ě
Ğ	Ǧ
ğ	ǧ
ģ	ǵ
Ĭ	Ǐ
ĭ	ǐ
ņ	ɲ
Ŏ	Ǒ
ŏ	ǒ
Ţ	Ț
ţ	ț	ƫ
Ŭ	Ǔ
ŭ	ǔ
ƅ	ь
Ɔ	Ↄ	Ͻ	ꓛ
Ǝ	ⴺ	ꓱ	∃
Ə	Ә
Ɛ	Є	Ԑ	Ⲉ	ℇ	€
ƨ	ᴤ	ϩ	ꙅ
Ʃ	ⵉ	Σ	𝚺	𝛴	𝜮	𝝨	𝞢	∑	⅀
Ʊ	ᘮ	ᘴ	℧
ǝ	ə	ә
Ƕ	Ԋ
ȝ	ʒ	ꝫ	ӡ	ჳ	ⳍ
Ʌ	ᐱ	ⴷ	Λ	Л	ꓥ	𝚲	𝛬	𝜦	𝝠	𝞚
ɔ	ᴐ	ↄ	ͻ
ɛ	ε	є	ԑ	ⲉ	ϵ	𝛆	𝛜	𝜀	𝜖	𝜺	𝝐	𝝴	𝞊	𝞮	𝟄	⋴
ɜ	ᴈ	з
ɢ	ԍ
ɰ	պ
ɸ	φ	ф	ⲫ	ϕ	𝛗	𝛟	𝜑	𝜙	𝝋	𝝓	𝞅	𝞍	𝞿	𝟇
ɿ	℩
ʃ	∫
ʌ	ᴧ
ʙ	в
ʜ	н
ʟ	ⳑ
ՙ	ʿ	˓
ˤ	ˁ
ˇ	꙾	˘
ᑊ	ˈ
ˏ	͵
ॱ	˙
˪	˻	꜖
˫	꜔
˳	⸰	。
̀	॓	̀
́	֜	֝	݇	॔	́
̂	̑	߮
̃	͂
̄	̅	߫
̆	̌	ͮ
̇	ं	ਂ	ં	்	͘	ֹ	ֺ	ׁ	ׂ	ׄ	݀	݁	߭
̈	߳
̉	〬
̊	ஂ	ํ	ໍ	ံ	ំ	゚	ͦ	֯	៓
̓	ُ	̕	ؙ	̓
̱	̠	॒
̦	̧	̹	̡
̨	ͅ	̢
̣	़	়	਼	઼	଼	ִ	ׅ	𐨺
̥	〭
̳	͇
̵	̶
̸	̷
ᒥ	Γ	Г	Ꮁ	Ⲅ	ℾ	𝚪	𝛤	𝜞	𝝘	𝞒
ᐃ	ⵠ	Δ	Ⲇ	𝚫	𝛥	𝜟	𝝙	𝞓	∆
Ξ	𝚵	𝛯	𝜩	𝝣	𝞝
Π	П	Ⲡ	ℿ	𝚷	𝛱	𝜫	𝝥	𝞟	∏
Φ	Ф	Փ	Ⲫ	𝚽	𝛷	𝜱	𝝫	𝞥
Ψ	Ѱ	Ⲯ	𝚿	𝛹	𝜳	𝝭	𝞧
ᘯ	ᘵ	Ω	Ω	𝛀	𝛺	𝜴	𝝮	𝞨
ẟ	δ	ծ	ᕷ	𝛅	𝛿	𝜹	𝝳	𝞭
ζ	𝛇	𝜁	𝜻	𝝵	𝞯
λ	Ⲗ	𝛌	𝜆	𝝀	𝝺	𝞴
ξ	𝛏	𝜉	𝝃	𝝽	𝞷
ς	𝛓	𝜍	𝝇	𝞁	𝞻
χ	ⲭ	𝛘	𝜒	𝝌	𝞆	𝟀
ψ	ѱ	𝛙	𝜓	𝝍	𝞇	𝟁
ω	ⲱ	𝛚	𝜔	𝝎	𝞈	𝟂	⍵
ϗ	ⳤ
ϝ	𝟋
Ϭ	Ⳝ
Ѝ	Й
ⵍ	И
Ш	Ⲽ
Э	℈
ᴎ	и
й	ѝ
л	ᴫ
ᴍ	м
ш	ⲽ
ᴙ	я
ᗯ	Ѡ
Ҷ	Ӌ
ҷ	ӌ
ᑎ	Ո
֖	֭
֘	֮
֙	֨
֚	֤
א	ℵ	ﬡ
ב	ℶ
ג	ℷ
ד	ℸ	ﬢ
ה	ﬣ
כ	ﬤ
ל	ﬥ
ם	ﬦ
ע	ﬠ
ר	ﬧ
ת	ﬨ
،	٬
َ	ؘ
ِ	ؚ
ء	ﺀ
آ	ﺁ	ﺂ
إ	ﺇ	ﺈ
ا	ﺍ	ﺎ
ب	ن	ﺏ	ﺐ	ﺑ	ﺒ	ﻥ	ﻦ	ﻧ	ﻨ
ت	ﺕ	ﺖ	ﺗ	ﺘ
ث	ﺙ	ﺚ	ﺛ	ﺜ
ج	خ	ﺝ	ﺞ	ﺟ	ﺠ	ﺥ	ﺦ	ﺧ	ﺨ
ح	ﺡ	ﺢ	ﺣ	ﺤ
د	ﺩ	ﺪ
ذ	ﺫ	ﺬ
ر	ﺭ	ﺮ
ز	ڔ	ﺯ	ﺰ
س	ﺱ	ﺲ	ﺳ	ﺴ
ش	ﺵ	ﺶ	ﺷ	ﺸ
ص	ﺹ	ﺺ	ﺻ	ﺼ
ض	ﺽ	ﺾ	ﺿ	ﻀ
ط	ﻁ	ﻂ	ﻃ	ﻄ
ظ	ﻅ	ﻆ	ﻇ	ﻈ
ع	ﻉ	ﻊ	ﻋ	ﻌ
غ	ﻍ	ﻎ	ﻏ	ﻐ
ف	ﻑ	ﻒ	ﻓ	ﻔ
ق	ﻕ	ﻖ	ﻗ	ﻘ
ك	ک	ﮎ	ﮏ	ﮐ	ﮑ	ﻙ	ﻚ	ﻛ	ﻜ
ل	ﻝ	ﻞ	ﻟ	ﻠ
م	ﻡ	ﻢ	ﻣ	ﻤ
ه	ھ	ہ	ە	ﮦ	ﮧ	ﮨ	ﮩ	ﮪ	ﮫ	ﮬ	ﮭ	ﻩ	ﻪ	ﻫ	ﻬ
و	ﻭ	ﻮ
ى	ي	ی	ﯨ	ﯩ	ﯼ	ﯽ	ﯾ	ﯿ	ﻯ	ﻰ	ﻱ	ﻲ	ﻳ	ﻴ
١	۱
٢	۲
٣	۳
٧	۷
٨	۸
٩	۹
ٱ	ﭐ	ﭑ
ٹ	ڻ	ﭦ	ﭧ	ﭨ	ﭩ	ﮠ	ﮡ	ﮢ	ﮣ
ٺ	ٻ	ې	ﭒ	ﭓ	ﭔ	ﭕ	ﭞ	ﭟ	ﭠ	ﭡ	ﯤ	ﯥ	ﯦ	ﯧ
پ	ﭖ	ﭗ	ﭘ	ﭙ
ٿ	ڀ	ﭚ	ﭛ	ﭜ	ﭝ	ﭢ	ﭣ	ﭤ	ﭥ
ڂ	ڄ	ﭲ	ﭳ	ﭴ	ﭵ
ڃ	ﭶ	ﭷ	ﭸ	ﭹ
چ	ﭺ	ﭻ	ﭼ	ﭽ
ڇ	ﭾ	ﭿ	ﮀ	ﮁ
ڈ	ﮈ	ﮉ
ڌ	ﮄ	ﮅ
ڍ	ﮂ	ﮃ
ڎ	ﮆ	ﮇ
ڑ	ﮌ	ﮍ
ژ	ﮊ	ﮋ
ڤ	ﭪ	ﭫ	ﭬ	ﭭ
ڦ	ﭮ	ﭯ	ﭰ	ﭱ
ڭ	ﯓ	ﯔ	ﯕ	ﯖ
گ	ﮒ	ﮓ	ﮔ	ﮕ
ڱ	ﮚ	ﮛ	ﮜ	ﮝ
ڳ	ﮖ	ﮗ	ﮘ	ﮙ
ں	ﮞ	ﮟ
ۀ	ۂ	ﮤ	ﮥ
ۅ	ﯠ	ﯡ
ۆ	ﯙ	ﯚ
ۇ	ﯗ	ﯘ
ۈ	ﯛ	ﯜ
ۉ	ﯢ	ﯣ
ۋ	ﯞ	ﯟ
ے	ﮮ	ﮯ
ۓ	ﮰ	ﮱ
۟	۬
ܼ	݂
ޙ	ޚ
ޞ	ޟ
ޠ	ޡ
ޢ	ޣ
ऽ	ઽ
ु	ુ
ू	ૂ
ॆ	ੋ
्	੍	્
२	૨
३	૩
४	૪
८	૮
॰	⚬	𑂻
ঃ	ਃ	ః	ಃ	ഃ	ඃ	း
அ	௮
ஈ	ர	ா
உ	௨	ഉ
எ	௭
ஐ	ஜ	ജ
க	௧
ச	௪
ண	ണ
ன	ை
ய	௰
ள	ௗ
ழ	ഴ
ஶ	ശ
ஷ	௸
ி	ി	ീ
௳	௵
అ	ಅ
ఆ	ಆ
ఇ	ಇ
ఒ	ಒ
జ	ಜ
ఞ	ಞ
ణ	ಣ
య	ಯ
ఱ	ಱ
ల	ಲ
౧	೧
౨	೨
౯	೯
ഞ	ൡ
ര	റ
ു	ൂ	ൃ
ข	ฃ
ค	ด	ต
ฆ	ม
จ	ຈ
ช	ซ
ฎ	ฏ
ฑ	ท
บ	ບ
ป	ປ
ฝ	ຝ
พ	ພ
ฟ	ຟ
ภ	ฦ
ย	ຍ
ฯ	។
า	ๅ
ิ	ិ
ี	ី
ึ	ឹ
ื	ឺ
ุ	ຸ
ู	ູ
่	່	់
้	້
๊	໊
๋	໋
๏	៙
๚	៕
๛	៚
་	༌
ར	ཪ
၁	ၥ
Ꞇ	Ⴀ
ᄀ	ᆨ	ㄱ
ᄂ	ᆫ	ㄴ
ᄃ	ᆮ	ㄷ
ᄅ	ᆯ	ㄹ
ᄆ	ᆷ	ㅁ
ᄇ	ᆸ	ㅂ
ᄉ	ᆺ	ㅅ
ᄋ	ᆼ	ㅇ
ᄌ	ᆽ	ㅈ
ᄎ	ᆾ	ㅊ
ᄏ	ᆿ	ㅋ
ᄐ	ᇀ	ㅌ
ᄑ	ᇁ	ㅍ
ᄒ	ᇂ	ㅎ
ᅀ	ᇫ	ㅿ
ᅌ	ᇰ	ㆁ
ᅙ	ᇹ	ㆆ
ᅠ	ㅤ
ᅡ	ㅏ
ᅣ	ㅑ
ᅥ	ㅓ
ᅧ	ㅕ
ᅩ	ㅗ
ᅭ	ㅛ
ᅮ	ㅜ
ᅲ	ㅠ
ー	一	ᅳ	ㅡ	—	―	─	━	㇐	⼀	－
丨	ᅵ	ㅣ	⎜	⎟	⎢	⎥	⎪	⎮	㇑	⼁
ᆞ	ㆍ
Ⱶ	Ꮀ
ᐡ	ᓑ
ᐩ	ᕀ
ᒉ	ᘃ
ᒐ	ᘂ
ᓓ	ᘄ
ᓚ	ᘇ
ᕃ	ᘢ
ᕆ	ᘣ
ᕊ	ᘤ
ᗡ	ꓷ
ᙠ	ꓭ
អ	ឣ
ᠵ	ᡕ
ᡜ	ᢖ
ᦞ	᧐
ᦱ	᧑
ᩅ	᪀	᪐
ᬍ	᭒
ᬑ	᭓
ᬨ	᭘
᭐	᭜
ᴘ	ᴩ
ᴚ	ꓤ
ᴴ	ᵸ
ᵋ	ᶟ
ᵍ	ᶢ
ả	ẚ
ῴ	ώ
⁝	⋮	︙
℗	Ⓟ
Ⅎ	ꓞ
ꓨ	⅁
ꓶ	⅂
↲	↵
↾	⨡
ꓯ	∀
∂	𝛛	𝜕	𝝏	𝞉	𝟃
∅	⌀
∇	𝛁	𝛻	𝜵	𝝯	𝞩
∎	█	■
∐	⨿
∧	⋀
ꓵ	∩	⋂
∪	⋃
≡	≣
≫	⨠
⊍	⨃
⊎	⨄
⊓	⨅
⊔	⨆
⊕	♁	⨁
⊗	⨂
⊙	☉	⨀
ꓕ	⊥	⟂
⊲	▷
⋄	◇	◊	♢
⋈	⨝
︴	⌇
⌒	◠
⌙	⨽
⌤	⌥
❬	⟨	〈	〈
❭	⟩	〉	〉
⎈	☸
⏜	︵
⏝	︶
⏞	︷
⏟	︸
⏠	︹
⏡	︺
⏥	▱
➀	①
➁	②
➂	③
➃	④
➄	⑤
➅	⑥
➆	⑦
➇	⑧
➈	⑨
➉	⑩
Ⓘ	ⓛ
│	┃	︱	｜
┌	┏
├	┣
▌	▐
▖	▗
▘	▝
□	☐
▪	￭
▶	▸	►
◎	⦾
☧	⳩
Ⲷ	☰
⟧	〛
⦚	⧙
〼	⧄
⨟	⨾
乚	⺃	㇟
亻	⺅
刂	⺉
㔾	⺋
兀	兀	⺎
尣	⺏
尢	尢	⺐	⼪
巳	⺒
幺	⺓	⼳
彑	⺔
忄	⺖
㣺	⺗
扌	⺘
攵	⺙
旡	⺛
歺	⺞
母	⺟
民	⺠
氵	⺡
氺	⺢
灬	⺣
爫	爫	⺤
丬	⺦
犭	⺨
罒	⺫	⺲
礻	⺭
糹	⺯
罓	⺱
耂	⺹
肀	⺺
艹	艹	艹	⺾	⺿	⻀
虎	⻁
衤	⻂
覀	⻃
西	⻄
见	⻅
讠	⻈
贝	⻉
车	⻋
辶	辶	⻌	⻍
阝	⻏	⻖
钅	⻐
長	⻑	⾧
镸	⻒
长	⻓
门	⻔
青	⻘
韦	⻙
页	⻚
风	⻛
飞	⻜
食	⻝	⾷
飠	⻟
饣	⻠
马	⻢
鬼	⻤	⿁
鱼	⻥
麦	⻨
黄	⻩
斉	⻫
齐	⻬
歯	⻭
齿	⻮
竜	⻯
龙	⻰
亀	⻲
龟	⻳
乙	㇠	⼄
亅	㇚	⼅
二	⼆
亠	⼇
人	⼈
儿	⼉
入	⼊
八	⼋
冂	⼌
冖	⼍
冫	⼎
几	⼏
凵	凵	⼐
刀	⼑
力	力	⼒
勹	⼓
匕	⼔
匚	⼕
匸	⼖
十	〸	⼗
卜	⼘
卩	⼙
厂	⼚
厶	⼛
又	⼜
口	⼝
囗	⼞
土	⼟
士	⼠
夂	⼡
夊	⼢
夕	⼣
大	⼤
女	女	⼥
子	⼦
宀	⼧
寸	⼨
小	⼩
尸	⼫
屮	屮	屮	⼬
山	⼭
巛	⼮
工	⼯
己	⼰
巾	⼱
干	⼲
广	⼴
廴	⼵
廾	廾	⼶
弋	⼷
弓	⼸
彐	⼹
彡	⼺
彳	⼻
心	⼼
戈	⼽
戶	戸	⼾
手	⼿
支	⽀
攴	⽁
文	⽂
斗	⽃
斤	⽄
方	⽅
无	⽆
日	⽇
曰	⽈
月	⽉
木	⽊
欠	⽋
止	⽌
歹	歹	⽍
殳	⽎
毋	⽏
比	⽐
毛	⽑
氏	⽒
气	⽓
水	⽔
火	⽕
爪	⽖
父	⽗
爻	⽘
爿	⽙
片	⽚
牙	⽛
牛	⽜
犬	⽝
玄	⽞
玉	⽟
瓜	⽠
瓦	⽡
甘	⽢
生	⽣
用	⽤
田	⽥
疋	⽦
疒	⽧
癶	⽨
白	⽩
皮	⽪
皿	⽫
目	⽬
矛	⽭
矢	⽮
石	⽯
示	⽰
禸	⽱
禾	⽲
穴	⽳
立	立	⽴
竹	⽵
米	⽶
糸	⽷
缶	⽸
网	⽹
羊	⽺
羽	羽	⽻
老	老	⽼
而	⽽
耒	⽾
耳	⽿
聿	⾀
肉	⾁
臣	⾂
自	⾃
至	⾄
臼	⾅
舌	⾆
舛	⾇
舟	⾈
艮	⾉
色	⾊
艸	⾋
虍	⾌
虫	⾍
血	⾎
行	行	⾏
衣	衣	⾐
襾	⾑
見	見	⾒
角	⾓
言	⾔
谷	⾕
豆	⾖
豕	豕	⾗
豸	⾘
貝	⾙
赤	⾚
走	⾛
足	⾜
身	⾝
車	車	⾞
辛	⾟
辰	辰	⾠
辵	⾡
邑	⾢
酉	⾣
釆	⾤
里	里	⾥
金	金	⾦
門	⾨
阜	⾩
隶	⾪
隹	⾫
雨	⾬
靑	⾭
非	⾮
面	⾯
革	⾰
韋	⾱
韭	⾲
音	⾳
頁	⾴
風	⾵
飛	⾶
首	⾸
香	⾹
馬	⾺
骨	⾻
高	⾼
髟	⾽
鬥	⾾
鬯	⾿
鬲	⿀
魚	⿂
鳥	⿃
鹵	⿄
鹿	鹿	⿅
麥	⿆
麻	麻	⿇
黃	⿈
黍	⿉
黑	黒	⿊
黹	黹	⿋
黽	⿌
鼎	⿍
鼓	⿎
鼠	⿏
鼻	鼻	⿐
齊	⿑
齒	⿒
龍	龍	⿓
龜	龜	龜	龜	⿔
龠	⿕
〒	〶
〜	～
卄	〹
卅	〺
へ	ヘ
ﾞ	゛
ﾟ	゜
乛	㇖
㒞	㒞
㒹	㒹
㒻	㒻
㓟	㓟
㔕	㔕
㖈	䎛
㘽	㦳
㛮	㛮
㛼	㛼
㞁	㞁
㠯	㠯
㡢	㡢
㡼	㡼
㣇	㣇
㣣	㣣
㤜	㤜
㤺	㤺
㨮	㨮
㩁	搉
㩬	㩬
㫚	曶
㫤	㫤
㬈	㬈
㬙	㬙
㬵	胶
㬺	幐
㬻	䐠
㭉	㭉
㮝	㮝	㮝
㮣	槩
㰘	㰘
㱎	㱎
㴳	㴳
㶖	㶖
㺬	㺬
㺸	㺸	㺸
㼛	㼛
㿼	㿼
䀈	䀈
䀘	䀘
䀹	鿃	䀹	䀹
䀿	晣
䁆	䁆
䂖	䂖
䃣	䃣
䄯	䄯
䈂	䈂
䈧	䈧
䊠	䊠
䌁	䌁
䌴	䌴
䍙	䍙
䏕	䏕
䏙	䏙
䐋	䐋
䑃	朦
䑫	䑫
䔫	䔫
䕝	䕝
䕡	䕡
䕫	䕫
䗗	䗗
䗹	䗹
䘵	䘵
䚶	訞
䚾	䚾
䛇	䛇
䦕	䦕
䧦	䧦
䩮	䩮
䩶	䩶
䪲	䪲
䬳	䬳
䯎	䯎
䳎	䳎
䳭	䳭
䳸	䳸
䵖	䵖
不	不
並	並
串	串
丸	丸
丹	丹
丽	丽
乁	乁
亂	亂
了	了
亮	亮
什	什
仌	仌
令	令
你	你
併	倂	倂
侀	侀
來	來
例	例
侮	侮	侮
侻	侻
便	便
値	值
倫	倫
偺	偺
備	備
像	像
僚	僚
僧	僧	僧
充	充
免	免	免
兔	兔
兤	兤
內	內
全	全
兩	兩
六	六
具	具
冀	冀
再	再
冒	冒
冕	冕
冗	冗
冤	冤
冬	冬
况	况	况
冷	冷
凉	凉
凌	凌
凜	凜
凞	凞
刃	刃
切	切	切
列	列
利	利
刺	刺
刻	刻
剆	剆
割	割
剷	剷
劉	劉
劣	劣
劳	劳
勇	勇	勇
勉	勉	勉
勒	勒
勞	勞
勤	勤	勤
勵	勵
勺	勺	勺
包	包
匆	匆
北	北	北
匿	匿
卉	卉
卑	卑	卑
博	博
即	即
卵	卵
卽	卽
卿	卿	卿	卿
參	參
及	及
叟	叟
句	句
叫	叫
叱	叱
吆	吆
吏	吏
吝	吝
吸	吸
呂	呂
呈	呈
周	周
咞	咞
咢	咢
咽	咽
哶	哶
唐	唐
啓	啟	啓
啕	啕
啣	啣
善	善	善
喇	喇
喙	喙	喙
喝	喝	喝
喫	喫
喳	喳
嗀	嗀
嗂	嗂
嗢	嗢
嘆	嘆	嘆
噑	噑
器	器
噴	噴
囹	囹
圖	圖
圗	圗
型	型
城	城
埴	埴
堍	堍
報	報
堲	堲
塀	塀
塚	塚	塚
塞	塞
塡	填
墨	墨
墫	壿
墬	墬
墳	墳
壘	壘
壟	壟
壮	壮
売	売
壷	壷
夆	夆
多	多
夢	夢
奄	奄
奈	奈
契	契
奔	奔
奢	奢
姘	姘
姬	姬
娛	娛
娧	娧
婢	婢
婦	婦
媯	嬀
媵	媵
嬈	嬈
嬨	嬨
嬾	嬾	嬾
宅	宅
寃	寃
寘	寘
寧	寧	寧	寧
寮	寮
寳	寳
寿	寿
将	将
尿	尿
屠	屠
屢	屢
層	層
履	履
岍	岍
峀	峀
崙	崙
嵃	嵃
嵐	嵐
嵫	嵫
嵮	嵮
嵼	嵼
嶲	嶲
嶺	嶺
巡	巡
巢	巢
巽	巽
帡	帲
帨	帨
帽	帽
幩	幩
年	年
度	度
庰	庰
庳	庳
庶	庶
廉	廉
廊	廊	廊
廒	廒
廓	廓
廙	廙
廬	廬
弄	弄
弢	弢	弢
当	当
形	形
彩	彩
彫	彫
律	律
徚	徚
復	復
徭	徭
忍	忍
志	志
念	念
忹	忹
怒	怒
怜	怜
恵	恵
悁	悁
悔	悔	悔
惇	惇
惘	惘
惡	惡
愈	愈
慄	慄
慈	慈
慌	慌	慌
慎	慎	慎
慠	慠
慨	慨
慺	慺
憎	憎	憎	憎
憐	憐
憤	憤
憯	憯
憲	憲
懞	懞
懲	懲	懲	懲
懶	懶	懶
戀	戀
成	成
戛	戛
戮	戮
戴	戴
扝	扝
抱	抱
拉	拉
拏	拏
拓	拓
拔	拔
拼	拼
拾	拾
挽	挽
捐	捐
捨	捨
捻	捻
掃	掃
掠	掠
掩	掩
揄	揄
揅	揅
揤	揤
搜	搜
搢	搢
摒	摒
摩	摩
摷	摷
摾	摾
撚	撚
撝	撝
擄	擄
敏	敏	敏
敖	敖
敬	敬
數	數
料	料
旅	旅
既	既
旣	旣
易	易
晉	晉
晚	晩
晴	晴	晴
暈	暈
暑	暑	暑
暜	暜
暴	暴
曆	曆
更	更
書	書
最	最
朌	肦
朏	胐
朐	胊
朓	脁
朗	朗	朗	朗
朘	脧
望	望	望
朡	朡
朣	膧
李	李
杓	杓
杖	杖
杞	杞
杮	柿
杻	杻
枅	枅
林	林
柳	柳
柺	柺
栗	栗
栟	栟
桒	桒
梁	梁
梅	梅	梅
梎	梎
梨	梨
椔	椔
楂	楂
榝	樧
榣	榣
槪	槪
樂	樂	樂	樂
樓	樓
檨	檨
櫓	櫓
櫛	櫛
欄	欄
次	次
歔	歔
歲	歲
歷	歷
殟	殟
殮	殮
殺	殺	殺	殺
殻	殻
汎	汎
汧	汧
沈	沈
沿	沿
泌	泌
泍	泍
泥	泥
洖	洖
洛	洛
洞	洞
洴	洴
派	派
流	流	流	流
浩	浩
浪	浪
海	海	海
浸	浸
涅	涅
淋	淋
淚	淚
淪	淪
淹	淹
渚	渚
港	港
湮	湮
溈	潙
溜	溜
溺	溺
滇	滇
滋	滋	滋
滑	滑
滛	滛
漏	漏
漢	漢	漢
漣	漣
潮	潮
濆	濆
濫	濫
濾	濾
瀛	瀛
瀞	瀞	瀞
瀹	瀹
灊	灊
灰	灰
灷	灷
災	災
炙	炙
炭	炭
烈	烈
烙	烙
煅	煅
煉	煉
煮	煮	煮
熜	熜
燎	燎
燐	燐
爐	爐
爛	爛
爨	爨
爵	爵	爵
牐	牐
牢	牢
犀	犀
犕	犕
犯	犯
狀	狀
狼	狼
猪	猪	猪
獵	獵
獺	獺
率	率	率
王	王
玥	玥
玲	玲
珞	珞
理	理
琉	琉
琢	琢
瑇	瑇
瑜	瑜
瑩	瑩
瑱	瑱	瑱
璅	璅
璉	璉
璘	璘
瓊	瓊
甆	甆
甤	甤
画	画
甾	甾
留	留
略	略
異	異	異
痢	痢
瘐	瘐
瘝	瘝
瘟	瘟
療	療
癩	癩
益	益	益
盛	盛
盧	盧
直	直	直
省	省
眞	眞
真	真	真
着	着
睊	睊	睊
瞋	瞋
瞧	瞧
研	硏
硎	硎
硫	硫
碌	碌	碌
碑	碑
磊	磊
磌	磌	磌
磻	磻
礪	礪
礼	礼
社	社
祈	祈
祉	祉
祐	祐
祖	祖	祖
祝	祝
神	神
祥	祥
祿	祿
禍	禍
禎	禎
福	福	福
禮	禮
秊	秊
秫	秫
稜	稜
穀	穀	穀
穊	穊
穏	穏
突	突
窱	窱
竮	竮
笠	笠
節	節	節
篆	篆
築	築
簾	簾
籠	籠
类	类
粒	粒
精	精
糒	糒
糖	糖
糣	糣
糧	糧
糨	糨
紀	紀
紐	紐
索	索
累	累
絕	絶
絛	絛
絣	絣
綠	綠
綾	綾
緇	緇
練	練	練	練
縂	縂
縉	縉
縷	縷
繁	繁
繅	繅
缾	缾
署	署
罹	罹
罺	罺
羅	羅
羕	羕
羚	羚
翺	翺
者	者	者	者
聆	聆
聠	聠
聯	聯
聰	聰
聾	聾
肋	肋
肭	肭
育	育
胼	腁
脃	脃
脾	脾
臘	臘
臨	臨
臭	臭
舁	舁	舁
舄	舄
舘	舘
良	良
芋	芋
芑	芑
芝	芝
花	花
芳	芳
芽	芽
若	若	若
苦	苦
茝	茝
茣	茣
茶	茶
荒	荒
荓	荓
荣	荣
莭	莭
莽	莽
菉	菉
菊	菊
菌	菌
菜	菜
菧	菧
華	華
菱	菱
落	落
葉	葉
著	著	著
蒍	蔿
蓮	蓮
蓱	蓱
蓳	蓳
蓼	蓼
蔖	蔖
蕤	蕤
藍	藍
藺	藺
蘆	蘆
蘒	蘒
蘭	蘭
蘷	虁
蘿	蘿
虐	虐
虜	虜	虜
虧	虧
虩	虩
蚈	蚈
蚩	蚩
蛢	蛢
蜎	蜎
蜨	蜨
蝫	蝫
蝹	蝹	蝹
螆	螆
螺	螺
蟡	蟡
蠁	蠁
蠟	蠟
衠	衠
裂	裂
裏	裏
裗	裗
裞	裞
裡	裡
裸	裸
裺	裺
褐	褐
襁	襁
襤	襤
覆	覆
視	視	視
訮	詽
誠	誠
說	說	說
調	調
請	請
諒	諒
論	論
諭	諭	諭
諸	諸	諸
諾	諾	諾
謁	謁	謁
謹	謹	謹
識	識
讀	讀
讆	讏
變	變	變
豈	豈
豜	豣
貫	貫
賁	賁
賂	賂
賈	賈
賓	賓
贈	贈	贈
贛	贛
起	起
赿	趆
趼	趼
跋	跋
跥	跺
路	路
跰	跰
躗	躛
軔	軔
軿	輧
輦	輦
輪	輪
輸	輸	輸
輻	輻
轢	轢
辞	辞
連	連
逸	逸	逸
遲	遲
遼	遼
邏	邏
邔	邔
郎	郞	郎
郱	郱
都	都
鄑	鄑
鄛	鄛
酪	酪
醙	醙
醴	醴
量	量
鈴	鈴
鈸	鈸
鉶	鉶
鉼	鉼
鋗	鋗
鋘	鋘
錄	錄
鍊	鍊
鎭	鎮
鏹	鏹
鐕	鐕
開	開
閭	閭
閷	閷
阮	阮
陋	陋
降	降
陵	陵
陸	陸
陼	陼
隆	隆
隣	隣
隷	隸	隸
雃	雃
離	離
難	難	難
零	零
雷	雷
霣	霣
露	露
靈	靈
靖	靖	靖
韛	韛
韠	韠
響	響	響
頋	頋	頋	頋
領	領
頩	頩
頻	頻	頻
類	類
飢	飢
飯	飯
飼	飼
館	館
餩	餩
馧	馧
駂	駂
駱	駱
駾	駾
驪	驪
鬒	鬒	鬒
魯	魯
鱀	鱀
鱗	鱗
鳽	鳽
鵧	鵧
鶴	鶴
鷺	鷺
鸞	鸞
鹂	鹃
麗	麗
麟	麟
黎	黎
黾	黾
鼅	鼅
鼏	鼏
鼖	鼖
齃	齃
龎	龎
ꁊ	꒞
ꁐ	꒬
ꃀ	꒜
ꄲ	꒨
ꉙ	꒿
ꊱ	꒾
ꋍ	꒔
ꎫ	꓀
ꎵ	꓂
ꎿ	꒺
ꏂ	꒰
ꑘ	꒧
Ꝺ	ꝺ
꧐	꧆
ꨁ	꩓
ꨣ	꩖
יִ	יּ
שׁ	שׂ	שּ
שּׁ	שּׂ
אַ	אָ	אּ
︿	＾
